
program.debug.elf:     file format elf32-littleriscv


Disassembly of section .text:

00000000 <loop-0xc>:
   0:	00000313          	addi	x6,x0,0
   4:	00001137          	lui	x2,0x1
   8:	00a00f93          	addi	x31,x0,10

0000000c <loop>:
   c:	03f301b3          	mul	x3,x6,x31
  10:	00312023          	sw	x3,0(x2) # 1000 <data>
  14:	00012203          	lw	x4,0(x2)
  18:	10412023          	sw	x4,256(x2)
  1c:	00810113          	addi	x2,x2,8
  20:	00130313          	addi	x6,x6,1
  24:	01032293          	slti	x5,x6,16
  28:	fe0292e3          	bne	x5,x0,c <loop>
  2c:	10500073          	wfi
	...

Disassembly of section .riscv.attributes:

00000000 <.riscv.attributes>:
   0:	1e41                	c.addi	x28,-16
   2:	0000                	c.unimp
   4:	7200                	c.flw	f8,32(x12)
   6:	7369                	c.lui	x6,0xffffa
   8:	01007663          	bgeu	x0,x16,14 <loop+0x8>
   c:	0014                	0x14
   e:	0000                	c.unimp
  10:	7205                	c.lui	x4,0xfffe1
  12:	3376                	c.fldsp	f6,376(x2)
  14:	6932                	c.flwsp	f18,12(x2)
  16:	7032                	c.flwsp	f0,44(x2)
  18:	5f30                	c.lw	x12,120(x14)
  1a:	326d                	c.jal	fffff9c4 <_sp+0xfffef9c4>
  1c:	3070                	c.fld	f12,224(x8)
	...
